{
  "data": {
    "pageNumber": 1,
    "hasNext": true,
    "hasPrev": false,
    "firstPage": 1,
    "prevPage": 1,
    "nextPage": 2,
    "lastPage": 2,
    "pageSize": 18,
    "totalCount": 30,
    "totalPages": 2,
    "result": [{
        "id": 30,
        "data": {
          "name": "tom"
        }
      }, {
        "id": 29,
        "data": {
          "name": "jerry"
        }
      }
    ]
  }
}
